{
  "type": "service_account",
  "project_id": "graciiastest",
  "private_key_id": "a1e9211aecc63b775b9fa8dcab48e60b65c821a4",
  "private_key": "-----BEGIN PRIVATE KEY-----\nMIIEvAIBADANBgkqhkiG9w0BAQEFAASCBKYwggSiAgEAAoIBAQCtnHGDfiJofHC/\nm4OR7DZ7dkXUu2eJv1iA7Ntj1B0sg6WMEVG+28d9jkFkO8Og86haunOkvPSbGkTK\nf51LEgOYO8nKEXJyjplBMdFRQI1E3PgOrtwQBhfYAUefG0baqXD0Ou0WFkYaShmQ\ntkoU6+19qFZ5+ad4STc0WVQdseh68d1E9rEmPO9Ru1kpoxDqQJj4ja/Y8McePIub\nIpmxRXTFLQfbV2Zq6sqg0bv+AXZC1vc1mgk08WzaztPx8uwocqjmA/QNHRdibnY0\nKBJ/QEP0YikoFNxZL4NsH0SIaIxJ0/GLraA2dpUsypnIOpwTQN0cEdKHCx/GMZ2Q\ncV0LZ3NpAgMBAAECggEAFdOu49DGY6uNg1F6e6yeduw6QFIlZMiVSHQ+6vCekFum\nwxLkW6IHFS5+4yquYDxyBKIfau1EtYFad7kOngMQR6Hwr0J9SJDMDMnGHriGakt7\ntmDekvcpJUOX7RWBVXlrFZGZACdhvelmCG8apkG5NIym/qPYHcPauG6oqCkXaOlt\nkmv7+maBcuwulqRLfnF+8WGQrgCxTZOBujGMix91J8ry6QX1WMH9N4KIRtBWSADf\nnKw1uiEkgdug8FRSEIcyyWoNO9TNoECP1y1kZ0fxMDl4fZmvSPXYanj/H3GCFHwP\nv1JMrMPSxrjf7XuXNuQp8xYIzr59TdndFaIdCfRglwKBgQDbXJD2zL46Zwe0rCaf\n0AKzyqVidayGg+2E5nuKjEnDykHUiH3zSSwHTXMwBqT9+rm5HX1fxF+SCdiradx7\n8nSX/moK7LKpDSONIEeYVH880nNWielfANNgzjuEJWwzk5plh+09iJSq2NK7/9RR\nedtj08Iur5dEMBS1C6PDMc+BDwKBgQDKm68mKmDGjRmJJ3kNDNnalpzQ829GS7U4\nlQPPkfnlaxPhUM2J2kokou50EBLgwk6f3ptyDBQQcVr8fcukFjMnlQnB64yb8SYP\nCZ3YbXNC0AMmuMKd7tO+EJos1nvbQIMk6bqjPYiybpMqEE9m/2MOJVesw/pjgaH3\nho1rvX5UBwKBgBL3A8lylheyhKYIJCa48yLcKERE7C+NBGHzE0c9LbtxpxNa4ZjB\nAL944LaMPIOAw8HPXOGEtsaHd2YKdvd4VMA3TK+5GxEmg6ZV3hq7Y2y8vSAEOFrw\nVVYPPnIEUkB7SGPyxn4FauUCbeW3DoIkyOTuj+E9aRSKG6Aza2sayVfdAoGAHINS\nX9Wg7vBWgqXKdFq1ofyGLyXDKCppY4AdHC4X9ABguNnNQzQ0MPm5Ax5r+bN+qyMB\nz0gB3tqFCnmNmhcBtfVUfTTwAdYrG/yneRjWGrX5a46e3OkKZXoiqGK65X0rt5sp\nB+YWAb5r+YR4GC+iug/pScf+ydgpehM2fc4aJCsCgYB7gKBrGQHVEXlyPz9vCPBQ\nO9xmxZ2+ro5FQAQWh1uWwdDg9qjHOBzYRfmQd2RJ6B0Uqai0lnFMiQzt/3B2l7Mr\nTSqtWURhMwDkGe0WZsz/jJ7DOW5pejGw6RDInhpXau2NW5UbeLnsBd0KVNlnrqXF\nSeT1rUB40fbBr5zCPJisWA==\n-----END PRIVATE KEY-----\n",
  "client_email": "administrator@graciiastest.iam.gserviceaccount.com",
  "client_id": "106994135955831924322",
  "auth_uri": "https://accounts.google.com/o/oauth2/auth",
  "token_uri": "https://oauth2.googleapis.com/token",
  "auth_provider_x509_cert_url": "https://www.googleapis.com/oauth2/v1/certs",
  "client_x509_cert_url": "https://www.googleapis.com/robot/v1/metadata/x509/administrator%40graciiastest.iam.gserviceaccount.com"
}
