{
  "type": "service_account",
  "project_id": "graciiastest",
  "private_key_id": "ca408dd386b70aa54e242829cd801ed3f41a1980",
  "private_key": "-----BEGIN PRIVATE KEY-----\nMIIEvAIBADANBgkqhkiG9w0BAQEFAASCBKYwggSiAgEAAoIBAQCqwvHHqNwcXuDg\noug3r9ABssTLK/+ob2WPYfNHcO6kVcBXelgrNnIUt4zk9Jx8atNknKnV2Cey0959\nTg7L7i6Yt1wYWtc96+kSGCqPrBwIxoKtCNEcc2U+cFR2rN42jFUGGZ+Zu7LqHMlG\n5003n7gU7I6hk7lwcrPeelUXVZM/uIoMigwGrY8Kq0xDhhvIc11dzL4sK/lg+gAp\nheJJQ6FPmB3t6dBw5AE2grQ3LVET2MhyK4NsJ6S+Rs0GRn4V5RPSUngV9dq4o5ri\nNZRtKHu74jH4K7torA/uzJnCLcaymN5ZbbeMVDaBjXcIq8CZ800i9UDlcXdnX8lY\ne4PGTYDzAgMBAAECggEABpf6dnQ0JtN/D9pNtZpc7mpBveELQSzAzJWPeEqJdhNq\nY7ZX4Z57laABmVtDEG04XNUzzz8TR8BCNUjZup3BQA8sewBFX9QhLs97rT2/FpOo\nh7GK3MD6WTveXXeO9dpBwJ3yrLpm55iIj4VU7pK4Eyhc2MTEgodBuZO0GQkqSdAj\ngbjrGiYWVM8qh6gscO3O07tXFo6jiDG/DMCP4P64qagOVEU8rN5FyHSQPCE3TMgT\nIOke0L9cNPRidQiw8ywBYH2QFf1IOrlA5zpyjnzajolD4Qqz5WZPlOWo1As4fALI\nAPG05DPWyQnt/RfiGAe6LV3iC75yPajb0PsFLPkDgQKBgQDtqUOg1+i8UTTCXDv3\nnc4avjiebHniwuYpr55BAaOFm/SLnUBaJl8ed3hScL9FvdNuvTf9f9csFqtrSf1V\nracHM5wcbs3rge4WYF5bGwt4wYvdejTMenIHLrI1S19Gq8XtGidbZYb+vuqKKaQx\na5rEtKpoj2UF1+8/TrQOOnUfswKBgQC38CaCgPlWltXrkA61fDeqgJsu321pJFTc\nMSXm7ITjzU1DAv5NRPsOx3ZvDu/+YzcHqobSebiCvTIclFUEALfK5UTGpYALYGZI\n9IChhiEx+omOjE+okoNByNwLOpxFOm4aU46GckZ95ePJlWq9Vv2RSHjU+Y6j7Zx0\nusShjWd5wQKBgGN7a+SjHDff4i7NfwialNCa+YZPMAIcxU2DxsG9Vt6xtn7Ol0Zl\nM4HETqhrq5Uc7ak4KXzCi6ZX4u9pLFM1+mnIT7uTIj1HyQqy0ixeuMGWet59riY9\nxwd8o3otj7c8ZgBm5zyZ1hVCg1jML3/EZCec3IwiIg59Ihek8TfXfnmDAoGAfkDg\nrgNJIh42h5JCBmBU9TuBSRMjTmAZv2oc0fzW2mY4+h47313R1bsjl+dw4/PF+gUa\nta3G8DZdBzDpie3UOfhU1OUUlrp8eucYw8YFUwDdGnNE2jh2z9jG8Q4x5XLN0FQ6\nKB6YNCJv0BY3Re9H7UkJZ2ZEelDGa3knLpyYwgECgYAGnVkh5hqGPX7kdcpGdjjL\nd+nmfAPUgdgFGbJktYFeygNvunysiuWbhXXKaxS0YHiycno/9UpCYaR0P/I+nwnI\nX7UDs5dFKNChNkWaj2IoVzg2rdMyStYQctWmX8Z+gGpNmXJmuN6sJRpUPe5GjxZ0\nj9nqvAn2uvN1gZXt/Aencw==\n-----END PRIVATE KEY-----\n",
  "client_email": "service-account@graciiastest.iam.gserviceaccount.com",
  "client_id": "110504133343457942126",
  "auth_uri": "https://accounts.google.com/o/oauth2/auth",
  "token_uri": "https://oauth2.googleapis.com/token",
  "auth_provider_x509_cert_url": "https://www.googleapis.com/oauth2/v1/certs",
  "client_x509_cert_url": "https://www.googleapis.com/robot/v1/metadata/x509/service-account%40graciiastest.iam.gserviceaccount.com"
}
